Energy & Data @ KIER - KIER기술정책플랫폼
…
news.selected

# A tibble: 3,116 × 4
   date       source       keyword                                     president
   <date>     <chr>        <chr>                                       <fct>    
 1 2023-07-10 강원일보     산사태,만큼,농작물,시설물,강원,그동안,기후… 윤석열   
 2 2023-07-09 울산매일     봄철,울산,기후변화,여름철,러시아,우리나라,… 윤석열   
 3 2023-07-06 대전일보     기회발전특구,충남,지자체,충남도,지방시대위… 윤석열   
 4 2023-07-05 파이낸셜뉴스 re100,재생에너지,전력량,삼성,발전량,cf100,… 윤석열   
 5 2023-07-04 전남일보     석곡천,광주,강물,재보수,주민들,흙벽,광주시… 윤석열   
 6 2023-07-04 서울경제     태양광,지원금,생태계,신재생,배출량,문재인,… 윤석열   
 7 2023-07-04 중앙일보     태양광,신재생,만큼,전기료,계산서,보조금,발… 윤석열   
 8 2023-07-04 동아일보     태양광,신재생,사업비,부패예방추진단,계산서… 윤석열   
 9 2023-07-04 국제신문     오사카,일본,부산,시의회,예카테린부르크,가…  윤석열   
10 2023-07-02 경향신문     노동자,온열질환,여름철,주차장,열사병,작업…  윤석열   
# ℹ 3,106 more rows
…
library(tidytext)

news.selected

# A tibble: 3,102 × 4
   date       source       keyword                                     president
   <date>     <chr>        <chr>                                       <fct>    
 1 2023-07-10 강원일보     산사태,만큼,농작물,시설물,강원,그동안,기후… 윤석열   
 2 2023-07-09 울산매일     봄철,울산,기후변화,여름철,러시아,우리나라,… 윤석열   
 3 2023-07-06 대전일보     기회발전특구,충남,지자체,충남도,지방시대위… 윤석열   
 4 2023-07-05 파이낸셜뉴스 re100,재생에너지,전력량,삼성,발전량,cf100,… 윤석열   
 5 2023-07-04 전남일보     석곡천,광주,강물,재보수,주민들,흙벽,광주시… 윤석열   
 6 2023-07-04 서울경제     태양광,지원금,생태계,신재생,배출량,문재인,… 윤석열   
 7 2023-07-04 중앙일보     태양광,신재생,만큼,전기료,계산서,보조금,발… 윤석열   
 8 2023-07-04 동아일보     태양광,신재생,사업비,부패예방추진단,계산서… 윤석열   
 9 2023-07-04 국제신문     오사카,일본,부산,시의회,예카테린부르크,가…  윤석열   
10 2023-07-02 경향신문     노동자,온열질환,여름철,주차장,열사병,작업…  윤석열   
# ℹ 3,092 more rows

news.selected %>% 
    select(keyword) %>% 
    separate_rows(keyword, sep= ",")

# A tibble: 66,017 × 1
   keyword 
   <chr>   
 1 산사태  
 2 만큼    
 3 농작물  
 4 시설물  
 5 강원    
 6 그동안  
 7 기후변화
 8 시간당  
 9 수도권  
10 여름철  
# ℹ 66,007 more rows

news.keyword<- news.selected %>% 
    separate_rows(keyword, sep= ",") %>% 
    rename(word = keyword) %>% 
    filter(str_length(word) > 1) %>% 
    count(president, word, sort = TRUE) %>%
    filter(!word %in% c('만큼', '그동안', '각국'))

news.keyword

# A tibble: 25,607 × 3
   president word         n
   <fct>     <chr>    <int>
 1 이명박    기후변화   542
 2 박근혜    기후변화   309
 3 문재인    기후변화   304
 4 문재인    탄소중립   283
 5 문재인    미국       250
 6 문재인    한국       249
 7 이명박    미국       232
 8 문재인    탈원전     225
 9 이명박    우리나라   204
10 이명박    한국       199
# ℹ 25,597 more rows
…
5.5 네트워크 만들기

library(ggraph)
library(tidygraph)  ## 네트워크 그래프
library(widyr)   ##pairwise_count

### 함수로 만들기 전에 원본?

news.keyword

# A tibble: 25,607 × 3
   president word         n
   <fct>     <chr>    <int>
 1 이명박    기후변화   542
 2 박근혜    기후변화   309
 3 문재인    기후변화   304
 4 문재인    탄소중립   283
 5 문재인    미국       250
 6 문재인    한국       249
 7 이명박    미국       232
 8 문재인    탈원전     225
 9 이명박    우리나라   204
10 이명박    한국       199
# ℹ 25,597 more rows
…
